---
- name: Cabernet moravia, 2012, Žůrek, 0,75l
  color: "Červené"
  cena: 117,00 Kč
  type: Suché
  classification: Jakostní víno
  alcohol: 12,0 %
  acid: 5,9 g/l
  year: '2012'
  town: Ratíškovice
  region: Morava
  sugar: 0,7 g/l
  country: "Česká republika"
- name: Pinot noir Austerlitz, 2012, výběr z hroznů, suché, Spielberg, 0,75l
  color: "Červené"
  cena: 249,00 Kč
  type: Suché
  classification: Výběr z hroznů
  alcohol: 14,0 %
  acid: 5,1 g/l
  year: '2012'
  town: Archlebov
  region: Morava
  sugar: 0,5 g/l
  country: "Česká republika"
- name: Svatovavřinecké, 2011, pozdní sběr, Vajbar, 0,75l
  color: "Červené"
  cena: 149,00 Kč
  type: Suché
  classification: Pozdní sběr
  year: '2011'
  town: Velké Pavlovice
  region: Velkopavlovická
  country: "Česká republika"
- name: Pinot noir barrique, 2011, výběr z bobulí, polosladké, Maňák, 0,5l
  color: "Červené"
  cena: 251,00 Kč
  type: Polosladké
  classification: Výběr z bobulí
  alcohol: 14,0 %
  acid: 6,5 g/l
  year: '2011'
  town: Popice
  region: Morava
  sugar: 33,9 g/l
  country: "Česká republika"
- name: Tarapacá, Syrah, 0,75l
  color: "Červené"
  cena: 129,00 Kč
  type: Suché
  alcohol: 14,0 %
  region: Central Valley
  country: Chile
- name: Frankovka, 2011, pozdní sběr, Na vyhlídce, suché, Lahofer, 0,75l
  color: "Červené"
  cena: 165,00 Kč
  type: Suché
  classification: Pozdní sběr
  acid: 4,9 g/l
  year: '2011'
  town: Olbramovice
  region: Znojemská
  sugar: 0,3 g/l
  country: "Česká republika"
- name: Rulandské modré, 2012, výběr z hroznů, suché, Krist, 0,75l
  color: "Červené"
  cena: 219,00 Kč
  type: Suché
  classification: Výběr z hroznů
  alcohol: 13,0 %
  acid: 5,6 g/l
  year: '2012'
  town: Strážnice
  region: Morava
  sugar: 7,0 g/l
  country: "Česká republika"
- name: Luis Felipe Edwards, Pinot noir, Reserva, 0,75l
  color: "Červené"
  cena: 185,00 Kč
  alcohol: 13,5 %
  country: Chile
- name: Frankovka, 2009, pozdní sběr, Spielberg, 0,75l
  color: "Červené"
  cena: 294,00 Kč
  type: Suché
  classification: Pozdní sběr
  year: '2009'
  town: "Žarošice"
  region: Slovácká
  country: "Česká republika"
- name: Svatovavřinecké, 2011, Classic, pozdní sběr, suché, Rajhradské Klášterní,
    0,75l
  color: "Červené"
  cena: 139,00 Kč
  type: Suché
  classification: Pozdní sběr
  alcohol: 12,0 %
  acid: 5,6 g/l
  year: '2011'
  town: D.Kounice
  region: Morava
  sugar: 0,4 g/l
  country: "Česká republika"
- name: Zweigeltrebe barrique, 2008, pozdní sběr, suché, Mádl, 0,75l
  color: "Červené"
  cena: 348,00 Kč
  type: Suché
  classification: Pozdní sběr
  alcohol: 13,0 %
  acid: 5,6 g/l
  year: '2008'
  town: Velké Bílovice
  region: Morava
  sugar: 0,1 g/l
  country: "Česká republika"
- name: Vernus, Pinot noir, Santa Helena, 0,75l
  color: "Červené"
  cena: 339,00 Kč
  type: Suché
  alcohol: 14,5 %
  country: Chile
- name: Cabernet sauvignon, 2013, Extra Rarge, pozdní sběr, suché, Žůrek, 0,75l
  color: "Červené"
  cena: 209,00 Kč
  type: Suché
  classification: Pozdní sběr
  alcohol: 12,0 %
  acid: 5,2 g/l
  year: '2013'
  town: Kyjov
  region: Morava
  sugar: 3,8 g/l
  country: "Česká republika"
- name: Bonne Nouvelle Merlot, nealko víno, 0,75l
  color: "Červené"
  cena: 177,00 Kč
  alcohol: max 0,5%
  country: Francie
- name: Neronet, 2011, pozdní sběr, Bíza, 0,75l
  color: "Červené"
  cena: 199,00 Kč
  type: Suché
  acid: 5,0 g/l
  year: '2011'
  town: "Čejkovice"
  region: Velkopavlovická
  sugar: 1,0 g/l
  country: "Česká republika"
- name: Pinot noir Cépage, 2011, výběr z hroznů, Nové Vinařství, 0,75l
  color: "Červené"
  cena: 209,00 Kč
  type: Suché
  classification: Výběr z hroznů
  alcohol: 15,5 %
  acid: 5,0 g/l
  year: '2011'
  town: Nový Přerov
  region: Morava
  sugar: 0,9 g/l
  country: "Česká republika"
- name: Cuvée MLASK, 2008, suché, Mádl, 0,75l
  color: "Červené"
  cena: 229,00 Kč
  classification: Jakostní víno
  alcohol: 13,5 %
  year: '2008'
  town: Velké Bílovice
  region: Morava
  country: "Česká republika"
- name: Dornfelder barrique, 2011, výběr z hroznů, suché, Maňák, 0,75l
  color: "Červené"
  cena: 327,00 Kč
  type: Suché
  classification: Výběr z hroznů
  alcohol: 13,5 %
  acid: 5,5 g/l
  year: '2011'
  town: "Šardice"
  region: Morava
  sugar: 2,6 g/l
  country: "Česká republika"
- name: McLaren Vale, Cabernet sauvignon, Beresford, 0,75l
  color: "Červené"
  cena: 599,00 Kč
  type: Suché
  alcohol: 14,5 %
  country: Austrálie
- name: Svatovavřinecké, 2011, Kořínek, 0,75l
  color: "Červené"
  cena: 168,00 Kč
  type: Suché
  classification: Zemské víno
  alcohol: 13,2 %
  acid: 5,3 g/l
  year: '2011'
  town: Hnanice
  region: Morava
  sugar: 1,4 g/l
  country: "Česká republika"
- name: Corbieres rouge Varietal, Gérard Bertrand, 0,75l
  color: "Červené"
  cena: 259,00 Kč
  type: Suché
  alcohol: 13,5 %
  region: Languedoc
  country: Francie
- name: Merlot, 2011, výběr z hroznů, suché, Moravíno, 0,75l
  color: "Červené"
  cena: 173,00 Kč
  type: Suché
  classification: Výběr z hroznů
  alcohol: 13,5 %
  acid: 5,2 g/l
  year: '2011'
  town: Valtice
  region: Morava
  sugar: 2,5 g/l
  country: "Česká republika"
- name: Cabernet moravia, 2013, zemské, suché, Fabig, 0,75l
  color: "Červené"
  cena: 205,00 Kč
  type: Suché
  classification: Zemské víno
  alcohol: 13,0 %
  acid: 5,0 g/l
  year: '2013'
  town: Hustopeče
  region: Morava
  sugar: 0,3 g/l
  country: "Česká republika"
- name: Maharal, 2009, pozdní sběr, suché, Tanzberg, 0,75l
  color: "Červené"
  cena: 258,00 Kč
  type: Suché
  classification: Pozdní sběr
  alcohol: 13,5 %
  acid: 4,8 g/l
  year: '2009'
  town: Bavory
  region: Morava
  sugar: 0,5 g/l
  country: "Česká republika"
- name: Frankovka barrique, 2007, pozdní sběr, suché, Mádl, 0,75l
  color: "Červené"
  cena: 256,00 Kč
  type: Suché
  classification: Pozdní sběr
  alcohol: 12,5 %
  year: '2007'
  town: Velké Bílovice
  region: Morava
  country: "Česká republika"
- name: Tarapacá, Cabernet sauvignon - Merlot, 0,75l
  color: "Červené"
  cena: 129,00 Kč
  type: Suché
  alcohol: 13,5 %
  region: Central Valley
  country: Chile
- name: Neronet, 2011, pozdní sběr, suché, Krist, 0,75l
  color: "Červené"
  cena: 219,00 Kč
  type: Suché
  classification: Pozdní sběr
  alcohol: 12,0 %
  acid: 6,0 g/l
  year: '2011'
  town: "Čejkovice"
  region: Morava
  sugar: 5,0 g/l
  country: "Česká republika"
- name: Parras Viejas, Cabernet sauvignon, Santa Helena 0,75l
  color: "Červené"
  cena: 654,00 Kč
  type: Suché
  alcohol: 14,0 %
  country: Chile
- name: Rulandské modré, 1997, suché, Valihrach, 0,75l
  color: "Červené"
  cena: 298,00 Kč
  type: Suché
  classification: Jakostní víno
  alcohol: 12,5 %
  year: '1997'
  town: Krumvíř
  country: "Česká republika"
- name: Frankovka, 2011, pozdní sběr, suché, Žůrek, 0,75l
  color: "Červené"
  cena: 119,00 Kč
  type: Suché
  classification: Pozdní sběr
  alcohol: 11,5 %
  year: '2011'
  town: Kyjov
  region: Morava
  country: "Česká republika"
- name: Elsa Bianchi, Syrah, 0,75l
  color: "Červené"
  cena: 125,00 Kč
  alcohol: 14,5 %
  country: Argentina
- name: Modrý portugal, 2009, jakostní, suché, Kolby, 0,75l
  color: "Červené"
  cena: 119,00 Kč
  type: Suché
  classification: Jakostní víno
  alcohol: 12,0 %
  year: '2009'
  town: Pouzdřany
  region: Morava
  country: "Česká republika"
- name: Cabernet sauvignon, 2010, zemské, suché, Valihrach, 0,75l
  color: "Červené"
  cena: 149,00 Kč
  type: Suché
  classification: Zemské víno
  alcohol: 12,0 %
  year: '2010'
  town: Krumvíř
  region: Morava
  country: "Česká republika"
- name: Klasika Dornfelder, 2012, Nestarec, 0,75l
  color: "Červené"
  cena: 199,00 Kč
  type: Suché
  classification: Zemské víno
  alcohol: 13,0 %
  year: '2012'
  town: Moravský Žižkov
  region: Morava
  country: "Česká republika"
- name: Zweigeltrebe Cépage, 2012, jakostní, Nové Vinařství, 0,75l
  color: "Červené"
  cena: 165,00 Kč
  type: Suché
  classification: Jakostní víno
  alcohol: 13,5 %
  acid: 5,6 g/l
  year: '2012'
  town: Těšetice
  region: Morava
  sugar: 0,5 g/l
  country: "Česká republika"
- name: Frankovka, 2013, pozdní sběr, suché, Vajbar, 0,75l
  color: "Červené"
  cena: 149,00 Kč
  type: Suché
  classification: Pozdní sběr
  alcohol: 12,5 %
  year: '2013'
  town: Zaječí
  region: Morava
  country: "Česká republika"
- name: Modrý porugal, 2011, jakostní, Syfany, 0,75l
  color: "Červené"
  cena: 109,00 Kč
  type: Suché
  classification: Jakostní víno
  alcohol: 12,0 %
  acid: 6,1 g/l
  year: '2009'
  town: Velké Pavlovice
  region: Morava
  sugar: 0,0 g/l
  country: "Česká republika"
- name: Rulandské modré barrique, 2005, výběr z hroznů, suché, Valihrach, 0,75l
  color: "Červené"
  cena: 429,00 Kč
  type: Suché
  classification: Výběr z hroznů
  alcohol: 13,5 %
  year: '2005'
  town: Krumvíř
  region: Morava
  country: "Česká republika"
- name: Luis Felipe Edwards, Merlot, Gran Reserva, 0,75l
  color: "Červené"
  cena: 214,00 Kč
  type: Suché
  country: Chile
- name: Dornfelder, 2012, pozdní sběr, Volné pole, suché, Lahofer, 0,75l
  color: "Červené"
  cena: 155,00 Kč
  type: Suché
  classification: Pozdní sběr
  alcohol: 12,5 %
  acid: 5,1 g/l
  year: '2012'
  town: Hostěradice
  region: Morava
  sugar: 0,4 g/l
  country: "Česká republika"
- name: Zweigeltrebe, 2009, pozdní sběr, suché, Valihrach, 0,75l
  color: "Červené"
  cena: 213,00 Kč
  type: Suché
  classification: Pozdní sběr
  alcohol: 12,5 %
  year: '2009'
  town: Krumvíř
  region: Morava
  country: "Česká republika"
- name: Modrý portugal, 2012, Žůrek, 0,75l
  color: "Červené"
  cena: 99,00 Kč
  type: Suché
  classification: Jakostní víno
  alcohol: 12,0 %
  acid: 6,2 g/l
  year: '2012'
  town: Strachotín
  region: Morava
  sugar: 1,1 g/l
  country: "Česká republika"
- name: Alibernet, 2011, pozdní sběr, Krist, 0,75l
  color: "Červené"
  cena: 219,00 Kč
  type: Suché
  classification: Pozdní sběr
  alcohol: 12,0 %
  acid: 5,3 g/l
  year: '2011'
  town: Milotice
  region: Morava
  sugar: 1,8 g/l
  country: "Česká republika"
- name: Luis Felipe Edwards, Dona Bernarda, 0,75l
  color: "Červené"
  cena: 615,00 Kč
  type: Suché
  alcohol: 14,5 %
  country: Chile
- name: Merlot, 2012, Francie, suché, Lahofer, 0,75l
  color: "Červené"
  cena: 149,00 Kč
  type: Suché
  alcohol: 13,0 %
  acid: 5,2 g/l
  year: '2012'
  sugar: 0,5 g/l
  country: Francie
- name: Particular Bianchi, Malbec, Valentin Bianchi, 0,75l
  color: "Červené"
  cena: 437,00 Kč
  type: Suché
  alcohol: 14,5 %
  country: Argentina
- name: Cuvée červené, 2011, suché, Gala, 0,75l
  color: "Červené"
  cena: 230,00 Kč
  type: Suché
  alcohol: 12,5 %
  year: '2011'
  town: Bavory
  region: Morava
  country: "Česká republika"
- name: Luis Felipe Edwards, Malbec, Gran Reserva, 0,75l
  color: "Červené"
  cena: 214,00 Kč
  type: Suché
  alcohol: 14,0 %
  country: Chile
- name: Zweigeltrebe, 2010, Clasic, zemské, suché, Mádl, 0,75l
  color: "Červené"
  cena: 81,00 Kč
  type: Suché
  classification: Zemské víno
  alcohol: 12,5 %
  year: '2010'
  region: Morava
  country: "Česká republika"
- name: Merlot, 2011, výběr z hroznů, suché, Gotberg, 0,75l
  color: "Červené"
  cena: 265,00 Kč
  type: Suché
  classification: Výběr z hroznů
  alcohol: 14,5 %
  acid: 5,0 g/l
  year: '2011'
  town: Popice
  region: Morava
  sugar: 1,1 g/l
  country: "Česká republika"
- name: Cuvée Bernety, 2012, zemské, suché, Krásná hora, 0,75l
  color: "Červené"
  cena: 175,00 Kč
  type: Suché
  classification: Zemské víno
  alcohol: 12,5 %
  acid: 5,4 g/l
  year: '2012'
  town: Dolní Dunajovice
  region: Morava
  sugar: 0,1 g/l
  country: "Česká republika"
- name: Pinot noir, 2012, zemské, suché, Krásná hora, 0,75l
  color: "Červené"
  cena: 239,00 Kč
  type: Suché
  classification: Zemské víno
  alcohol: 14,0 %
  year: '2012'
  town: Starý Poddvorov
  region: Morava
  country: "Česká republika"
- name: Zinfandel, L.A.Cetto, 0,75l
  color: "Červené"
  cena: 349,00 Kč
  type: Suché
  alcohol: 14,0 %
  country: Mexiko
- name: Frankovka, 2011, Exclusive, pozdní sběr, suché, Rajhradské Klášterní, 0,75l
  color: "Červené"
  cena: 186,00 Kč
  type: Suché
  classification: Pozdní sběr
  alcohol: 12,0 %
  acid: 5,8 g/l
  year: '2011'
  town: Dolní Kounice
  region: Morava
  sugar: 0,3 g/l
  country: "Česká republika"
- name: Tarapacá, Etiqueta Azul, Gran Reserva, 0,75l
  color: "Červené"
  cena: 889,00 Kč
  type: Suché
  country: Chile
- name: Vernus, Cabernet sauvignon, Santa Helena, 0,75l
  color: "Červené"
  cena: 285,00 Kč
  type: Suché
  alcohol: 14,5 %
  country: Chile
- name: Chateau la Tessonniere, Medoc, Marquis du Tertre, Cru Artisian, 0,75l
  color: "Červené"
  cena: 285,00 Kč
  alcohol: 13,0 %
  year: '2012'
  country: Francie
- name: Luis Felipe Edwards, Cabernet sauvignon, Reserva, 0,75l
  color: "Červené"
  cena: 185,00 Kč
  type: Suché
  alcohol: 14,0 %
  country: Chile
- name: Domaine Saint Lannes - Cuvée du Pic du Jer, 0,75l
  color: "Červené"
  cena: 373,00 Kč
  alcohol: 12,0 %
  country: Francie
- name: Alibernet, barrique, pozdní sběr, suché, Mádl, 0,75l
  color: "Červené"
  cena: 345,00 Kč
  type: Suché
  classification: Pozdní sběr
  alcohol: 13,5 %
  acid: 6,2 g/l
  town: Velké Bílovice
  region: Morava
  sugar: 0,1 g/l
  country: "Česká republika"
- name: Dornfelder, 2012, výběr z hroznů, suché, Maňák, 0,75l
  color: "Červené"
  cena: 196,00 Kč
  type: Suché
  classification: Výběr z hroznů
  alcohol: 13,5 %
  acid: 5,2 g/l
  year: '2012'
  town: "Šardice"
  region: Morava
  sugar: 2,1 g/l
  country: "Česká republika"
- name: Rulandské modré, 2011, pozdní sběr, suché, Ampelos, 0,75l
  color: "Červené"
  cena: 174,00 Kč
  type: Suché
  classification: Pozdní sběr
  alcohol: 13,0 %
  acid: 6,5 g/l
  year: '2011'
  town: Vrbovec
  region: Morava
  sugar: 0,5 g/l
  country: "Česká republika"
- name: Svatovavřinecké, 2011, pozdní sběr, Volné pole, suché, Lahofer, 0,75l
  color: "Červené"
  cena: 161,00 Kč
  type: Suché
  classification: Pozdní sběr
  alcohol: 12,5 %
  acid: 5,2 g/l
  year: '2011'
  town: Hostěradice
  region: Znojemská
  sugar: 0,5 g/l
  country: "Česká republika"
- name: BIO, moravské zemské, červené, suché, Mádl, 0,75l
  color: "Červené"
  cena: 131,00 Kč
  type: Suché
  classification: Zemské víno
  alcohol: 12,5 %
  region: Morava
  country: "Česká republika"
- name: Cabernet sauvignon, Moulin de Gassac, 0,75l
  color: "Červené"
  cena: 149,00 Kč
  type: Suché
  alcohol: 13,5 %
  country: Francie
- name: Frankovka, 2011, Antika, zemské, suché, Nestarec, 0,75l
  color: "Červené"
  cena: 399,00 Kč
  type: Suché
  classification: Zemské víno
  alcohol: 13,5 %
  year: '2011'
  town: Moravský Žižkov
  region: Morava
  country: "Česká republika"
- name: Tarapacá Santa Cecilia, Merlot, 0,75l
  color: "Červené"
  cena: 84,00 Kč
  type: Suché
  alcohol: 13,0 %
  region: Central Valley
  country: Chile
- name: Cabernet sauvignon, 2013, Premium, pozdní sběr, polosladké, Štěpánek, 0,75l
  color: "Červené"
  cena: 219,00 Kč
  type: Polosladké
  classification: Pozdní sběr
  alcohol: 11,0 %
  acid: 5,3 g/l
  year: '2013'
  town: Mutěnice
  region: Morava
  sugar: 32,0 g/l
  country: "Česká republika"
- name: Bonne Nouvelle Rouge, nealko víno, 0,75l
  color: "Červené"
  cena: 177,00 Kč
  alcohol: max 0,5%
  country: Francie
- name: Frankovka, 2012, slámové víno, sladké, Maňák, 0,2l
  color: "Červené"
  cena: 379,00 Kč
  type: Sladké
  classification: Slámové víno
  alcohol: 9,0 %
  acid: 8,0 g/l
  year: '2012'
  town: "Šardice"
  region: Morava
  sugar: 161,7 g/l
  country: "Česká republika"
- name: Luis Felipe Edwards, Carmenere, Pupilla, 0,75l
  color: "Červené"
  cena: 97,00 Kč
  alcohol: 13,0 %
  country: Chile
- name: Cuvée 13 červené, 2012, Vinařství Kraus, 0,75l
  color: "Červené"
  cena: 90,00 Kč
  type: Suché
  year: '2012'
  town: Mělník
  region: Mělnická
  country: "Česká republika"
- name: Frankovka, 2010, jakostní, suché, Mádl, 0,75l
  color: "Červené"
  cena: 105,00 Kč
  type: Suché
  classification: Jakostní víno
  alcohol: 12,5 %
  year: '2010'
  town: Velké Bílovice
  region: Morava
  country: "Česká republika"
- name: Neronet, 2008, pozdní sběr, "Kristovy poklady", Krist, 0,75l
  color: "Červené"
  cena: 249,00 Kč
  type: Suché
  acid: 5,4 g/l
  year: '2008'
  town: "Čejkovice"
  region: Morava
  sugar: 2,5 g/l
  country: "Česká republika"
- name: Rulandské modré, 2011, výběr z hroznů, Syfany, 0,75l
  color: "Červené"
  cena: 205,00 Kč
  type: Suché
  classification: Výběr z hroznů
  alcohol: 14,0 %
  acid: 5,1 g/l
  year: '2011'
  town: Velké Pavlovice
  region: Morava
  sugar: 0,4 g/l
  country: "Česká republika"
- name: Merlot Naturalys BIO, Gérard Bertrand, 0,75l
  color: "Červené"
  cena: 199,00 Kč
  type: Suché
  alcohol: 13,5 %
  region: Languedoc
  country: Francie
- name: André, 2011, pozdní sběr, Syfany, 0,75l
  color: "Červené"
  cena: 119,00 Kč
  type: Suché
  classification: Pozdní sběr
  alcohol: 12,5 %
  acid: 6,5 g/l
  year: '2011'
  town: Vrbice
  region: Morava
  sugar: 0,2 g/l
  country: "Česká republika"
- name: Dornfelder, 2013, Extra Range, pozdní sběr, suché, Žůrek, 0,75l
  color: "Červené"
  cena: 209,00 Kč
  type: Suché
  classification: Pozdní sběr
  alcohol: 11,5 %
  acid: 4,9 g/l
  year: '2013'
  town: "Čejkovice"
  region: Morava
  sugar: 4,5 g/l
  country: "Česká republika"
- name: Canelo, Merlot, 0,75l
  color: "Červené"
  cena: 99,00 Kč
  type: Suché
  alcohol: 13,0 %
  country: Chile
- name: Melior Zero Red, nealko víno, 0,75l
  color: "Červené"
  cena: 198,00 Kč
  country: "Španělsko"
- name: Ventoux Les Gélinottes 2012, Alain Jaume, 0,75l
  color: "Červené"
  cena: 210,00 Kč
  type: Suché
  alcohol: 14,0 %
  country: Francie
- name: Enzo Bianchi, Valentin Bianchi, 0,75l
  color: "Červené"
  cena: 849,00 Kč
  type: Suché
  alcohol: 15,0 %
  country: Argentina
- name: Lub Rouge Classique, Marrenon, 0,75l
  color: "Červené"
  cena: 130,00 Kč
  type: Suché
  alcohol: 13,5 %
  region: Côtes du Rhône
  country: Francie
- name: Chianti Riserva DOCG, 0,75l
  color: "Červené"
  cena: 279,00 Kč
  type: Suché
  alcohol: 13,0 %
  country: Itálie
- name: Syrah-Grenache noir, 2010, AOP, Cotes du Rhone, 0,75l
  color: "Červené"
  cena: 299,00 Kč
  type: Suché
  alcohol: 14,0 %
  region: Côtes du Rhône
  country: Francie
- name: Luis Felipe Edwards, Cabernet sauvignon, Gran Reserva, 0,75l
  color: "Červené"
  cena: 214,00 Kč
  type: Suché
  alcohol: 14,0 %
  country: Chile
- name: Svatovavřinecké, 2009, jakostní, suché, Mádl, 0,75l
  color: "Červené"
  cena: 106,00 Kč
  type: Suché
  classification: Jakostní víno
  alcohol: 12,5 %
  year: '2009'
  town: Moravská nová Ves
  region: Morava
  country: "Česká republika"
- name: Svatovavřinecké, 2009, pozdní sběr, Trpělka & Oulehla, 0,75l
  color: "Červené"
  cena: 169,00 Kč
  type: Suché
  acid: 5,0 g/l
  year: '2009'
  sugar: 1,9 g/l
  country: "Česká republika"
- name: Rulandské modré, 2012, výběr z hroznů, suché, Ampelos, 0,75l
  color: "Červené"
  cena: 188,00 Kč
  type: Suché
  classification: Výběr z hroznů
  alcohol: 13,0 %
  acid: 5,3 g/l
  year: '2012'
  town: Vrbovec
  region: Morava
  sugar: 0,9 g/l
  country: "Česká republika"
- name: André, 2010, jakostní, suché, Ampelos, 0,75l
  color: "Červené"
  cena: 109,00 Kč
  type: Suché
  classification: Jakostní víno
  alcohol: 12,5 %
  acid: 6,3 g/l
  year: '2010'
  town: Vrbovec
  region: Morava
  sugar: 0,2 g/l
  country: "Česká republika"
- name: Merlot, 2011, Hort, 0,75l
  color: "Červené"
  cena: 149,00 Kč
  type: Suché
  acid: 5,9 g/l
  year: '2011'
  sugar: 0,5 g/l
  country: Francie
- name: Zweigeltrebe, 2013, zemské, suché, Krásná hora, 0,75l
  color: "Červené"
  cena: 159,00 Kč
  type: Suché
  classification: Zemské víno
  alcohol: 11,0 %
  year: '2013'
  town: Starý Poddvorov
  region: Morava
  country: "Česká republika"
- name: Merlot, bag in box 5l, Vajbar
  color: "Červené"
  cena: 339,00 Kč
  type: Polosladké
  country: "Česká republika"
- name: Rasteau VDN Signature rouge, Ortas, 0,75l
  color: "Červené"
  cena: 449,00 Kč
  type: Sladké
  alcohol: 17,0 %
  region: "Údolí Rhony"
  country: Francie
- name: Cabernet sauvignon, 2012, pozdní sběr, suché, Moravíno, 0,75l
  color: "Červené"
  cena: 173,00 Kč
  type: Suché
  classification: Pozdní sběr
  alcohol: 13,5 %
  acid: 4,9 g/l
  year: '2012'
  town: Mikulov
  region: Morava
  sugar: 3,7 g/l
  country: "Česká republika"
- name: Canelo, Cabernet sauvignon, 0,75l
  color: "Červené"
  cena: 99,00 Kč
  type: Suché
  alcohol: 13,5 %
  country: Chile
- name: Tarapacá, Merlot, 2011, Gran Reserva, 0,75l
  color: "Červené"
  cena: 299,00 Kč
  type: Suché
  alcohol: 14,5 %
  country: Chile
- name: Mas du Novi, Prestigi, 0,75l
  color: "Červené"
  cena: 349,00 Kč
  alcohol: 14,5 %
  year: '2009'
  country: Francie
- name: Versant Sud Luberon rouge, Marrenon, 0,75l
  color: "Červené"
  cena: 269,00 Kč
  type: Suché
  alcohol: 15,0 %
  region: Luberon
  country: Francie
- name: Zweigeltrebe, 2011, jakostní, suché, Mádl, 0,75l
  color: "Červené"
  cena: 115,00 Kč
  type: Suché
  classification: Jakostní víno
  alcohol: 12,0 %
  year: '2011'
  town: Velké Bílovice
  region: Morava
  country: "Česká republika"
- name: Condor, Merlot, 0,75l
  color: "Červené"
  cena: 89,00 Kč
  alcohol: 12,5 %
  country: Chile
- name: Neronet, 2011, pozdní sběr, Žůrek, 0,75l
  color: "Červené"
  cena: 279,00 Kč
  type: Polosuché
  classification: Pozdní sběr
  alcohol: 11,0 %
  acid: 5,2 g/l
  year: '2011'
  town: Polešovice
  region: Morava
  sugar: 7,3 g/l
  country: "Česká republika"
- name: Zweigeltrebe, 2010, pozdní sběr, Syfany, 0,75l
  color: "Červené"
  cena: 165,00 Kč
  type: Suché
  classification: Pozdní sběr
  alcohol: 12,5 %
  acid: 5,3 g/l
  year: '2010'
  town: Vrbice
  region: Morava
  sugar: 0,4 g/l
  country: "Česká republika"
- name: Cadus, Malbec, Senetiner, 0,75l
  color: "Červené"
  cena: 709,00 Kč
  type: Suché
  alcohol: 15,0 %
  country: Argentina
- name: Grand cuvée bizé, 2008, výběr z hroznů, Bíza, 0,75l
  color: "Červené"
  cena: 625,00 Kč
  type: Suché
  classification: Výběr z hroznů
  year: '2008'
  town: "Čejkovice"
  region: Velkopavlovická
  country: "Česká republika"
- name: Roučí malé - Pinot noir, 2012, suché, Vinařství Kraus, 0,75l
  color: "Červené"
  cena: 129,00 Kč
  type: Suché
  classification: Zemské víno
  alcohol: 12,5 %
  acid: 5,0 g/l
  year: '2012'
  town: Mělník
  region: "Čechy"
  country: "Česká republika"
- name: Frankovka, 2010, výběr z hroznů, Krist, 0,75l
  color: "Červené"
  cena: 219,00 Kč
  type: Suché
  classification: Výběr z hroznů
  acid: 8,7 g/l
  year: '2010'
  town: Vacenovice
  region: Slovácká
  sugar: 3,1 g/l
  country: "Česká republika"
- name: Merlot barrique, 2012, výběr z hroznů, suché, Maňák, 0,75l
  color: "Červené"
  cena: 327,00 Kč
  type: Suché
  classification: Výběr z hroznů
  alcohol: 12,5 %
  acid: 6,3 g/l
  year: '2012'
  town: "Žádovice"
  region: Morava
  sugar: 2,9 g/l
  country: "Česká republika"
- name: "Šaler, 2009, Špalek, 0,5l"
  color: "Červené"
  cena: 179,00 Kč
  type: Sladké
  classification: Dezertní víno
  acid: 4,7 g/l
  year: '2009'
  region: Znojemská
  sugar: 80,0 g/l
  country: "Česká republika"
- name: Syrah, Moulin de Gassac, 0,75l
  color: "Červené"
  cena: 149,00 Kč
  type: Suché
  alcohol: 13,5 %
  country: Francie
- name: Chateau, St.Thomas, 0,75l
  color: "Červené"
  cena: 569,00 Kč
  type: Suché
  alcohol: 14,0 %
  country: Libanon
- name: Svatovavřinecke barrique, 2007, pozdní sběr, Ch.Dowina, nefiltrováno, Michlovský,
    0,75l
  color: "Červené"
  cena: 247,00 Kč
  type: Suché
  classification: Pozdní sběr
  year: '2007'
  town: "Žabčice"
  region: Velkopavlovická
  country: "Česká republika"
- name: Rulandské modré, 2003, výběr z hroznů, Valihrach, 0,75l
  color: "Červené"
  cena: 448,00 Kč
  type: Suché
  classification: Výběr z hroznů
  year: '2003'
  town: Krumvíř
  region: Velkopavlovická
  country: "Česká republika"
- name: HF cuvée Syrah-Granache, 2009, Hort, 0,75l
  color: "Červené"
  cena: 288,00 Kč
  type: Suché
  acid: 5,0 g/l
  year: '2009'
  sugar: 0,7 g/l
  country: "Česká republika"
- name: Cabernet sauvignon, Reserva Coonawarra, Berton Vineyard, 0,75l
  color: "Červené"
  cena: 419,00 Kč
  type: Suché
  alcohol: 14,5 %
  country: Austrálie
- name: Modrý portugal, 2011, pozdní sběr, Syfany, 0,75l
  color: "Červené"
  cena: 189,00 Kč
  type: Suché
  classification: Pozdní sběr
  alcohol: 12,5 %
  acid: 6,0 g/l
  year: '2011'
  town: Velké Pavlovice
  region: Morava
  sugar: 0,0 g/l
  country: "Česká republika"
- name: Tarapacá, Carmenére, 2011, Gran Reserva, 0,75l
  color: "Červené"
  cena: 299,00 Kč
  type: Suché
  alcohol: 14,0 %
  country: Chile
- name: Dornfelder, 2012, Vinařství Kraus, 0,75l
  color: "Červené"
  cena: 179,00 Kč
  type: Suché
  classification: Zemské víno
  alcohol: 12,5 %
  year: '2012'
  town: Mělník
  region: "Čechy"
  country: "Česká republika"
- name: Tarapacá, Syrah, 2012, Reserva, 0,75l
  color: "Červené"
  cena: 239,00 Kč
  type: Suché
  alcohol: 14,0 %
- name: Merlot, výběr z hroznů, 2009, Pod Pálavou, suché, Tanzberg, 0,75l
  color: "Červené"
  cena: 229,00 Kč
  type: Suché
  classification: Výběr z hroznů
  alcohol: 14,0 %
  acid: 4,6 g/l
  year: '2009'
  town: Bavory
  region: Morava
  sugar: 0,8 g/l
  country: "Česká republika"
- name: Cabernet sauvignon, bag in box, Vajbar, 5l
  color: "Červené"
  cena: 339,00 Kč
  type: Suché
  alcohol: 13,0 %
  country: Chile
- name: Pinot noir, 2012, Vinařství Kraus, 0,75l
  color: "Červené"
  cena: 179,00 Kč
  type: Suché
  classification: Zemské víno
  alcohol: 13,5 %
  year: '2012'
  town: Mělník
  region: "Čechy"
  country: "Česká republika"
- name: Modrý portugal, 2010, pozdní sběr, suché, Moravíno, 0,75l
  color: "Červené"
  cena: 173,00 Kč
  type: Suché
  classification: Pozdní sběr
  alcohol: 13,0 %
  year: '2010'
  town: Mikulov
  region: Morava
  country: "Česká republika"
- name: Rulandské modré, 2010, Standard Line, jakostní, suché, Mikrosvín, 0,75l
  color: "Červené"
  cena: 118,00 Kč
  type: Suché
  classification: Jakostní víno
  alcohol: 12,0 %
  acid: 5,2 g/l
  year: '2010'
  region: Morava
  sugar: 0,3 g/l
  country: "Česká republika"
- name: Cabernet sauvignon barrique, 2012, pozdní sběr, suché, Maňák, 0,75l
  color: "Červené"
  cena: 327,00 Kč
  type: Suché
  classification: Pozdní sběr
  alcohol: 12,5 %
  acid: 5,9 g/l
  year: '2012'
  town: Novosedly
  region: Morava
  sugar: 2,6 g/l
  country: "Česká republika"
- name: Cabernet sauvignon, 1993, suché, Valihrach, 0,75l
  color: "Červené"
  cena: 339,00 Kč
  type: Suché
  classification: Jakostní víno
  alcohol: 13,0 %
  year: '1993'
  town: Krumvíř
  region: Morava
  country: "Česká republika"
- name: Zweigeltrebe, 2011, Exclusive, pozdní sběr, suché, Rajhradské Klášterní, 0,75l
  color: "Červené"
  cena: 186,00 Kč
  type: Suché
  classification: Pozdní sběr
  alcohol: 12,0 %
  acid: 5,5 g/l
  year: '2011'
  town: Dolní Kounice
  region: Morava
  sugar: 0,3 g/l
  country: "Česká republika"
- name: Rulandské modré, 2012, Za Cihelnou, Traditional Line, pozdní sběr, suché,
    Mikrosvín, 0,75l
  color: "Červené"
  cena: 465,00 Kč
  type: Suché
  classification: Pozdní sběr
  alcohol: 13,0 %
  acid: 5,3 g/l
  year: '2012'
  town: Mikulov
  region: Morava
  sugar: 0,5 g/l
  country: "Česká republika"
- name: Stowells, Cabernet-Merlot, 0,25l
  color: "Červené"
  cena: 39,00 Kč
  alcohol: 12,5 %
  country: Chile
- name: Tarapacá, Carmenére, 0,75l
  color: "Červené"
  cena: 129,00 Kč
  type: Suché
  alcohol: 14,0 %
  region: Central Valley
  country: Chile
- name: Modrý portugal, 2010, pozdní sběr, Bíza, 0,75l
  color: "Červené"
  cena: 196,00 Kč
  type: Suché
  acid: 4,9 g/l
  year: '2010'
  town: "Čejkovice"
  region: Velkopavlovická
  sugar: 1,8 g/l
  country: "Česká republika"
- name: Frankovka barrique, 2012, pozdní sběr, suché, Moravíno, 0,75l
  color: "Červené"
  cena: 173,00 Kč
  type: Suché
  classification: Pozdní sběr
  alcohol: 13,5 %
  acid: 4,8 g/l
  year: '2012'
  town: Mikulov
  region: Morava
  sugar: 2,0 g/l
  country: "Česká republika"
- name: Cabernet Franc, 2007, zemské, suché, Valihrach, 0,75l
  color: "Červené"
  cena: 396,00 Kč
  type: Suché
  classification: Zemské víno
  alcohol: 13,0 %
  year: '2007'
  town: Krumvíř
  region: Morava
  country: "Česká republika"
- name: Frankovka, bag in box, Nestarec, 5l
  color: "Červené"
  cena: 369,00 Kč
  type: Suché
  classification: Zemské víno
  alcohol: 13,0 %
  region: Morava
  country: "Česká republika"
- name: Merlot, 2011, Flower Line, pozdní sběr, suché, Mikrosvín, 0,75l
  color: "Červené"
  cena: 239,00 Kč
  type: Suché
  classification: Pozdní sběr
  alcohol: 12,0 %
  acid: 5,3 g/l
  year: '2010'
  town: Dolní Dunajovice
  region: Morava
  sugar: 0,5 g/l
  country: "Česká republika"
- name: Luis Felipe Edwards, Shiraz, Gran Reserva, 0,75l
  color: "Červené"
  cena: 214,00 Kč
  type: Suché
  alcohol: 14,0 %
  country: Chile
- name: Zweigeltrebe, 2012, pozdní sběr, suché, Spielberg, 0,75l
  color: "Červené"
  cena: 199,00 Kč
  type: Suché
  classification: Pozdní sběr
  alcohol: 12,5 %
  acid: 5,5 g/l
  year: '2012'
  town: "Žarošice"
  region: Morava
  sugar: 0,9 g/l
  country: "Česká republika"
- name: Tarapacá, Cabernet sauvignon, 0,75l
  color: "Červené"
  cena: 129,00 Kč
  type: Suché
  alcohol: 13,5 %
  region: Central Valley
  country: Chile
- name: Rulandské modré, 2011, výběr z bobulí, polosuché, Gotberg, 0,75l
  color: "Červené"
  cena: 265,00 Kč
  type: Polosuché
  classification: Výběr z bobulí
  alcohol: 15,0 %
  acid: 5,3 g/l
  year: '2011'
  town: Popice
  region: Morava
  sugar: 15,3 g/l
  country: "Česká republika"
- name: Frankovka, 2013, ledové víno, sladké, Maňák, 0,2l
  color: "Červené"
  cena: 379,00 Kč
  type: Sladké
  classification: Ledové víno
  alcohol: 9,5 %
  acid: 7,3 g/l
  year: '2013'
  town: "Šardice"
  region: Morava
  sugar: 100,0 g/l
  country: "Česká republika"
- name: Domaine Saint Lannes - Les Peyrades, 0,75l
  color: "Červené"
  cena: 199,00 Kč
  alcohol: 12,0 %
  country: Francie
- name: Grand cuvée caberner, 2007, výběr z hroznů, Bíza, 0,75l
  color: "Červené"
  cena: 625,00 Kč
  type: Suché
  classification: Výběr z hroznů
  year: '2007'
  town: "Čejkovice"
  region: Velkopavlovická
  country: "Česká republika"
- name: Selection HF 2011, suché, Hort, 0,75l
  color: "Červené"
  cena: 198,00 Kč
  type: Suché
  alcohol: 13,5 %
  year: '2011'
  sugar: 0,2 g/l
  country: Francie
- name: Modrý portugal, 2011, výběr z hroznů, suché, Krist, 0,75l
  color: "Červené"
  cena: 219,00 Kč
  type: Suché
  classification: Výběr z hroznů
  alcohol: 12,5 %
  acid: 5,0 g/l
  year: '2011'
  town: Strážnice
  region: Morava
  sugar: 5,8 g/l
  country: "Česká republika"
- name: Tarapacá Santa Cecilia, Cabernet sauvignon, 0,75l
  color: "Červené"
  cena: 84,00 Kč
  type: Suché
  alcohol: 13,5 %
  region: Central Valley
  country: Chile
- name: Woodbridge, Zinfandel, Robert Mondavi, 0,75l
  color: "Červené"
  cena: 248,00 Kč
  type: Suché
  alcohol: 13,5 %
  country: USA
- name: Zweigeltrebe, 2011, pozdní sběr, Babičák, Lahofer, 0,75l
  color: "Červené"
  cena: 165,00 Kč
  type: Suché
  classification: Pozdní sběr
  acid: 4,9 g/l
  year: '2011'
  town: Dyje
  region: Znojemská
  sugar: 0,2 g/l
  country: "Česká republika"
- name: Blauer Zweigelt Klassik 2012, suché, Gruber Röschitz, 0,75l
  color: "Červené"
  cena: 189,00 Kč
  type: Suché
  classification: Jakostní víno
  alcohol: 12,5 %
  acid: 5,3 g/l
  year: '2012'
  town: Röschitz
  sugar: 1,0 g/l
  country: Rakousko
- name: Tarapacá, Syrah, 2010, Gran Reserva, 0,75l
  color: "Červené"
  cena: 299,00 Kč
  type: Suché
  country: Chile
- name: Notas De Guarda, Carmenere, Santa Helena, 0,75l
  color: "Červené"
  cena: 599,00 Kč
  type: Suché
  alcohol: 14,5 %
  country: Chile
- name: Rulandské modré, 2011, pozdní sběr, Waldberg, suché, Lahofer, 0,75l
  color: "Červené"
  cena: 219,00 Kč
  type: Suché
  classification: Pozdní sběr
  alcohol: 13,5 %
  acid: 5,0 g/l
  year: '2011'
  town: Vrbovec
  region: Morava
  sugar: 0,7 g/l
  country: "Česká republika"
- name: Frankovka, pozdní sběr, 2011, Turold, suché, Tanzberg, 0,75l
  color: "Červené"
  cena: 209,00 Kč
  type: Suché
  classification: Pozdní sběr
  alcohol: 12,5 %
  acid: 6,0 g/l
  year: '2011'
  town: Mikulov
  region: Morava
  sugar: 0,4 g/l
  country: "Česká republika"
- name: Svatovavřinecké, 2009, pozdní sběr, suché, Valihrach, 0,75l
  color: "Červené"
  cena: 206,00 Kč
  classification: Pozdní sběr
  alcohol: 12,5 %
  year: '2009'
  town: Krumvíř
  region: Morava
  country: "Česká republika"
- name: Cabernet sauvignon, 2012, pozdní sběr, Žůrek, 0,75l
  color: "Červené"
  cena: 179,00 Kč
  type: Suché
  classification: Pozdní sběr
  alcohol: 12,0 %
  acid: 6,6 g/l
  year: '2012'
  town: Kyjov
  region: Morava
  sugar: 5,0 g/l
  country: "Česká republika"
- name: Cabernet sauvignon, 2011, výběr z hroznů, polosuché, Krist, 0,75l
  color: "Červené"
  cena: 219,00 Kč
  type: Polosuché
  classification: Výběr z hroznů
  alcohol: 12,5 %
  acid: 6,0 g/l
  year: '2011'
  town: Kyjov
  region: Morava
  sugar: 12,0 g/l
  country: "Česká republika"
- name: Merlot barrique, 2004, pozdní sběr, suché, Valihrach, 0,75l
  color: "Červené"
  cena: 459,00 Kč
  type: Suché
  classification: Pozdní sběr
  alcohol: 12,5 %
  year: '2004'
  town: Krumvíř
  region: Morava
  country: "Česká republika"
- name: Luis Felipe Edwards, Carmenere, Gran Reserva, 0,75l
  color: "Červené"
  cena: 214,00 Kč
  type: Suché
  alcohol: 14,0 %
  country: Chile
- name: Zweigeltrebe, 2010, pozdní sběr, suché, Krist, 0,75l
  color: "Červené"
  cena: 219,00 Kč
  type: Suché
  classification: Pozdní sběr
  alcohol: 12,0 %
  acid: 9,3 g/l
  year: '2010'
  town: Vacenovice
  region: Morava
  sugar: 0,5 g/l
  country: "Česká republika"
- name: Domaine des Amariniers, Cotes du Rhone, Villages, 0,75l
  color: "Červené"
  cena: 239,00 Kč
  alcohol: 14,5 %
  year: '2012'
  country: Francie
- name: Blauer Zweigelt 2011, Lauschen, Gruber Röschitz, 0,75l
  color: "Červené"
  cena: 259,00 Kč
  type: Suché
  classification: Jakostní víno
  alcohol: 13,0 %
  acid: 5,0 g/l
  year: '2011'
  town: Röschitz
  sugar: 1,1 g/l
  country: Rakousko
- name: Merlot, 2011, výběr z hroznů, Krist, 0,75l
  color: "Červené"
  cena: 219,00 Kč
  type: Suché
  classification: Výběr z hroznů
  alcohol: 13,0 %
  acid: 5,5 g/l
  year: '2011'
  town: Strážnice
  region: Morava
  sugar: 2,0 g/l
  country: "Česká republika"
- name: Frankovka barrique, 2008, pozdní sběr, Ch.Dowina, Michlovský, 0,75l
  color: "Červené"
  cena: 247,00 Kč
  type: Suché
  classification: Pozdní sběr
  year: '2008'
  town: Perná
  region: Mikulovská
  country: "Česká republika"
- name: Woodbridge, Cabernet sauvignon, Robert Mondavi, 0,75l
  color: "Červené"
  cena: 248,00 Kč
  type: Suché
  alcohol: 13,5 %
  country: USA
- name: Frankovka, 2009, pozdní sběr, suché, Mádl, 0,75l
  color: "Červené"
  cena: 185,00 Kč
  type: Suché
  classification: Pozdní sběr
  alcohol: 14,0 %
  year: '2009'
  town: Velké Bílovice
  region: Morava
  country: "Česká republika"
- name: Luis Felipe Edwards, Cabernet sauvignon, Pupilla, 0,75l
  color: "Červené"
  cena: 97,00 Kč
  alcohol: 13,0 %
  year: '2011'
  country: Chile
- name: Domaine Dubosc Monplaisir rouge, 0,75l
  color: "Červené"
  cena: 230,00 Kč
  country: Francie
- name: Klasika Zweigeltrebe, 2011, Nestarec, 0,75l
  color: "Červené"
  cena: 219,00 Kč
  type: Suché
  classification: Zemské víno
  alcohol: 13,5 %
  year: '2011'
  town: Moravský Žižkov
  region: Morava
  country: "Česká republika"
- name: Domaine de Pellehaut - Les Marcottes rouge, 0,75l
  color: "Červené"
  cena: 321,00 Kč
  country: Francie
- name: Merlot, 2010, Francie, Lahofer, 0,75l
  color: "Červené"
  cena: 155,00 Kč
  type: Suché
  classification: Odrůdové víno
  acid: 4,8 g/l
  year: '2010'
  sugar: 0,4 g/l
  country: Francie
- name: Tarapacá, Merlot, 0,75l
  color: "Červené"
  cena: 129,00 Kč
  type: Suché
  alcohol: 13,5 %
  region: Central Valley
  country: Chile
- name: Neronet, 2011, jakostní, Ampelos, 0,75l
  color: "Červené"
  cena: 139,00 Kč
  type: Suché
  classification: Jakostní víno
  alcohol: 13,0 %
  acid: 6,5 g/l
  year: '2011'
  town: Vrbovec
  region: Morava
  sugar: 1,5 g/l
  country: "Česká republika"
- name: Modrý portugal, 2012, pozdní sběr, suché, Ampelos, 0,75l
  color: "Červené"
  cena: 184,00 Kč
  type: Suché
  classification: Pozdní sběr
  alcohol: 12,0 %
  acid: 4,6 g/l
  year: '2012'
  town: Vrbovec
  region: Morava
  sugar: 0,6 g/l
  country: "Česká republika"
- name: Domaine de Pellehaut - Harmonie de Gascone Rouge, 2011, 0,75l
  color: "Červené"
  cena: 213,00 Kč
  country: Francie
- name: Merlot barrique, 2010, slámové víno, sladké, Maňák, 0,375l
  color: "Červené"
  cena: 649,00 Kč
  type: Sladké
  classification: Slámové víno
  alcohol: 8,0 %
  year: '2010'
  town: "Žádovice"
  region: Morava
  country: "Česká republika"
- name: Modrý portugal, pozdní sběr, 2011, suché, Spielberg, 0,75l
  color: "Červené"
  cena: 177,00 Kč
  type: Suché
  classification: Pozdní sběr
  alcohol: 12,5 %
  acid: 5,1 g/l
  year: '2011'
  town: Archlebov
  region: Morava
  sugar: 0,6 g/l
  country: "Česká republika"
- name: Tarapacá, Cabernet sauvignon-Merlot, 2012, Reserva, 0,75l
  color: "Červené"
  cena: 239,00 Kč
  type: Suché
  alcohol: 14,0 %
  country: Chile
- name: PM Pinot Meunier barrique, sur lie, 2008, suché, Hort, 0,75l
  color: "Červené"
  cena: 319,00 Kč
  type: Suché
  year: '2008'
  country: "Česká republika"
- name: Rulandské modré, 2012, ledové víno, sladké, Maňák, 0,2l
  color: "Červené"
  cena: 379,00 Kč
  type: Sladké
  classification: Ledové víno
  alcohol: 10,0 %
  acid: 8,0 g/l
  year: '2012'
  town: "Žádovice"
  region: Morava
  sugar: 161,7 g/l
  country: "Česká republika"
- name: Châteauneuf du Pape cuvée de la Serriere, Chateau Beauchene, 0,75l
  color: "Červené"
  cena: 569,00 Kč
  type: Suché
  alcohol: 14,5 %
  region: "Údolí Rhony"
  country: Francie
- name: Frankovka, 2013, zemské, suché, Fabig, 0,75l
  color: "Červené"
  cena: 180,00 Kč
  type: Suché
  classification: Zemské víno
  alcohol: 12,0 %
  acid: 5,5 g/l
  year: '2013'
  town: Hustopeče
  region: Morava
  sugar: 0,6 g/l
  country: "Česká republika"
- name: Cabernet sauvignon, Don David Finca La Urquiza, Michel Torino, 0,75l
  color: "Červené"
  cena: 359,00 Kč
  type: Suché
  alcohol: 14,0 %
  country: Argentina
- name: Rulandské modré, 1983, suché, Valihrach, 0,75l
  color: "Červené"
  cena: 599,00 Kč
  type: Suché
  classification: Zemské víno
  alcohol: 12,5 %
  year: '1983'
  town: Krumvíř
  region: Morava
  country: "Česká republika"
- name: Svatovavřinecké, 2011, pozdní sběr, Collection Red, Pod Martinkou, 0,75l
  color: "Červené"
  cena: 139,00 Kč
  type: Suché
  classification: Pozdní sběr
  alcohol: 12,5 %
  year: '2011'
  town: Mikulov
  region: Morava
  country: "Česká republika"
- name: Neronet, 2012, pozdní sběr, suché, Maňák, 0,75l
  color: "Červené"
  cena: 130,00 Kč
  type: Suché
  classification: Pozdní sběr
  alcohol: 12,0 %
  acid: 6,2 g/l
  year: '2012'
  town: Novosedly
  region: Morava
  sugar: 0,5 g/l
  country: "Česká republika"
- name: Altimus, Michel Torino, 0,75l
  color: "Červené"
  cena: 749,00 Kč
  type: Suché
  alcohol: 15,0 %
  country: Argentina
- name: Modrý portugal, 2012, Lampelberg, suché, Lahofer, 0,75l
  color: "Červené"
  cena: 108,00 Kč
  type: Suché
  classification: Jakostní víno
  alcohol: 12,5 %
  acid: 5,1 g/l
  year: '2012'
  town: Vrbovec
  region: Morava
  sugar: 0,3 g/l
  country: "Česká republika"
- name: Premier Terroir 2011, Côtes du Rhône, Chateau Beauchene, 0,75l
  color: "Červené"
  cena: 330,00 Kč
  type: Suché
  region: Côtes du Rhône
  country: Francie
- name: Yealands Estate, Pinot noir, 0,75l
  color: "Červené"
  cena: 538,00 Kč
  type: Suché
  alcohol: 13,5 %
  country: Nový Zéland
- name: Neronet, 2011, slámové víno, sladké, Bíza, 0,2l
  color: "Červené"
  cena: 599,00 Kč
  type: Sladké
  classification: Slámové víno
  alcohol: 9,0 %
  year: '2011'
  town: "Čejkovice"
  region: Morava
  sugar: 200 g/l
  country: "Česká republika"
- name: Neronet, 2012, pozdní sběr, Žůrek, 0,75l
  color: "Červené"
  cena: 269,00 Kč
  type: Suché
  classification: Pozdní sběr
  alcohol: 11,0 %
  acid: 5,5 g/l
  year: '2012'
  town: Polešovice
  region: Morava
  sugar: 2,7 g/l
  country: "Česká republika"
- name: Chateau Roux de Beauces AOC, 0,75l
  color: "Červené"
  cena: 195,00 Kč
  alcohol: 12,5 %
  year: '2007'
  country: Francie
- name: Pinot noir, 2011, Klasika, zemské, suché, Nestarec, 0,75l
  color: "Červené"
  cena: 199,00 Kč
  type: Suché
  alcohol: 13,0 %
  year: '2011'
  town: Moravský Žižkov
  region: Morava
  country: "Česká republika"
- name: Tarapacá, Natura plus bio, 0,75l
  color: "Červené"
  cena: 999,00 Kč
  type: Suché
  country: Chile
- name: Modrý portugal, 2013, zemské, suché, Valihrach, 0,75l
  color: "Červené"
  cena: 135,00 Kč
  type: Suché
  classification: Zemské víno
  alcohol: 11,5 %
  year: '2013'
  town: Krumvíř
  region: Morava
  country: "Česká republika"
- name: Svatovavřinecké, 2010, pozdní sběr, suché, Krist, 0,75l
  color: "Červené"
  cena: 219,00 Kč
  type: Suché
  classification: Pozdní sběr
  alcohol: 12,0 %
  acid: 8,0 g/l
  year: '2010'
  town: Milotice
  region: Morava
  sugar: 8,0 g/l
  country: "Česká republika"
- name: Cabernet moravia, 2011, Premium, zemské, suché, Kořínek, 0,75l
  color: "Červené"
  cena: 169,00 Kč
  type: Suché
  classification: Zemské víno
  alcohol: 12,6 %
  acid: 6,0 g/l
  year: '2011'
  town: Hnanice
  region: Morava
  sugar: 0,1 g/l
  country: "Česká republika"
- name: Zweigeltrebe barrigue, 2006, pozdní sběr, suché, Valihrach, 0,75l
  color: "Červené"
  cena: 458,00 Kč
  type: Suché
  classification: Pozdní sběr
  alcohol: 13,0 %
  year: '2011'
  town: Krumvíř
  region: Morava
  country: "Česká republika"
- name: Rulandské modré, 2009, zemské, suché, Valihrach, 0,75l
  color: "Červené"
  cena: 168,00 Kč
  type: Suché
  classification: Zemské víno
  alcohol: 11,5 %
  year: '2009'
  town: Krumvíř
  region: Morava
  country: "Česká republika"
- name: Frankovka, Premium, 2012, výběr z hroznů, suché, Vinařství Štěpánek, 0,75l
  color: "Červené"
  cena: 185,00 Kč
  type: Suché
  classification: Výběr z hroznů
  alcohol: 13,0 %
  acid: 4,9 g/l
  year: '2012'
  town: Mutěnice
  region: Morava
  sugar: 0,5 g/l
  country: "Česká republika"
- name: Tarapacá, Cabernet sauvignon, 2012, Reserva, 0,75l
  color: "Červené"
  cena: 239,00 Kč
  type: Suché
  alcohol: 14,0 %
  country: Chile
- name: Alibernet barrique, 2011, pozdní sběr, suché, Maňák, 0,75l
  color: "Červené"
  cena: 325,00 Kč
  type: Suché
  classification: Pozdní sběr
  alcohol: 12,5 %
  acid: 5,3 g/l
  year: '2011'
  town: Novosedly
  region: Morava
  sugar: 3,1 g/l
  country: "Česká republika"
- name: Modrý portugal, 2013, pozdní sběr, suché, Bíza, 0,75l
  color: "Červené"
  cena: 199,00 Kč
  type: Suché
  classification: Pozdní sběr
  alcohol: 13,0 %
  acid: 4,6 g/l
  year: '2013'
  town: "Čejkovice"
  region: Morava
  sugar: 0,6 g/l
  country: "Česká republika"
- name: Pinot noir, výběr z hroznů, 2012, suché, Gala, 0,75l
  color: "Červené"
  cena: 460,00 Kč
  type: Suché
  classification: Výběr z hroznů
  alcohol: 14,0 %
  year: '2012'
  town: Bavory
  region: Morava
  country: "Česká republika"
- name: Pinot noir Austerlitz, 2011, výběr z hroznů, Spielberg, 0,75l
  color: "Červené"
  cena: 295,00 Kč
  type: Suché
  classification: Výběr z hroznů
  alcohol: 15,0 %
  acid: 4,9 g/l
  year: '2011'
  town: Archlebov
  region: Morava
  sugar: 0,5 g/l
  country: "Česká republika"
- name: Frankovka, 2012, výběr z hroznů, suché, Maňák, 0,75l
  color: "Červené"
  cena: 196,00 Kč
  type: Suché
  classification: Výběr z hroznů
  alcohol: 12,5 %
  acid: 5,6 g/l
  year: '2012'
  town: Novosedly
  region: Morava
  sugar: 2,0 g/l
  country: "Česká republika"
- name: Chateau Gros Chene AOC, Bordeaux rouge, 0,75l
  color: "Červené"
  cena: 175,00 Kč
  alcohol: 12,5 %
  year: '2011'
  country: Francie
- name: Dornfelder, 2013, Premium, pozdní sběr, suché, Štěpánek, 0,75l
  color: "Červené"
  cena: 219,00 Kč
  type: Polosuché
  classification: Pozdní sběr
  alcohol: 11,5 %
  acid: 4,9 g/l
  year: '2013'
  town: "Čejkovice"
  region: Morava
  sugar: 12,0 g/l
  country: "Česká republika"
- name: St. Laurent & Pinot Noir 2011, Galgenberg, Gruber Röschitz, 0,75l
  color: "Červené"
  cena: 259,00 Kč
  type: Suché
  classification: Jakostní víno
  alcohol: 13,0 %
  acid: 4,9 g/l
  year: '2011'
  town: Röschitz
  sugar: 1,0 g/l
  country: Rakousko
- name: Cuvée červené, 2009, Colours, zemské, suché, Kořínek, 0,75l
  color: "Červené"
  cena: 143,00 Kč
  type: Suché
  classification: Zemské víno
  alcohol: 10,9 %
  acid: 4,7 g/l
  year: '2009'
  town: Hnanice
  region: Morava
  sugar: 0,7 g/l
  country: "Česká republika"
- name: Cabernet sauvignon, pozdní sběr, 2008, Turold, suché, Tanzberg, 0,75l
  color: "Červené"
  cena: 241,00 Kč
  type: Suché
  classification: Pozdní sběr
  alcohol: 13,0 %
  acid: 4,9 g/l
  year: '2008'
  town: Mikulov
  region: Morava
  sugar: 0,1 g/l
  country: "Česká republika"
- name: Modrý portugal, bag in box 5l, Vajbar
  color: "Červené"
  cena: 289,00 Kč
  type: Suché
  country: "Česká republika"
- name: Tarapacá, Carmenére, 2012, Reserva, 0,75l
  color: "Červené"
  cena: 239,00 Kč
  type: Suché
  alcohol: 14,0 %
  country: Chile
- name: Malbec, Don David, Michel Torino, 0,75l
  color: "Červené"
  cena: 259,00 Kč
  type: Suché
  alcohol: 14,0 %
  country: Argentina
- name: Modrý portugal, 2012, jakostní, suché, Mádl, 0,75l
  color: "Červené"
  cena: 116,00 Kč
  type: Suché
  classification: Pozdní sběr
  alcohol: 12,5 %
  year: '2012'
  town: Velké Bílovice
  region: Morava
  country: "Česká republika"
- name: Tinto Tempranillo, bag in box, 5l
  color: "Červené"
  cena: 329,00 Kč
  type: Suché
  alcohol: 12,0 %
  country: "Španělsko"
- name: Frankovka, 2012, pozdní sběr, Žůrek, 0,75l
  color: "Červené"
  cena: 119,00 Kč
  type: Suché
  classification: Pozdní sběr
  alcohol: 11,5 %
  acid: 5,6 g/l
  year: '2012'
  town: Kyjov
  region: Morava
  sugar: 2,7 g/l
  country: "Česká republika"
- name: Dornfelder, 2011, pozdní sběr, Grmolec, 0,75l
  color: "Červené"
  cena: 219,00 Kč
  type: Suché
  year: '2011'
  town: Hovorany
  region: Slovácká
  country: "Česká republika"
- name: Grenache, 2010, Francie, Lahofer, 0,75l
  color: "Červené"
  cena: 155,00 Kč
  type: Suché
  classification: Odrůdové víno
  acid: 4,6 g/l
  year: '2010'
  sugar: 0,4 g/l
  country: Francie
- name: Elsa Bianchi, Malbec, 0,75l
  color: "Červené"
  cena: 125,00 Kč
  alcohol: 15,0 %
  country: Argentina
- name: Zweigeltrebe, 2011, pozdní sběr, Šebesta, 0,75l
  color: "Červené"
  cena: 179,00 Kč
  type: Suché
  classification: Pozdní sběr
  acid: 5,9 g/l
  year: '2011'
  town: Březí
  region: Mikulovská
  sugar: 4,5 g/l
  country: "Česká republika"
- name: Zweigeltrebe, 2009, pozdní sběr, Babičák, Lahofer, 0,75l
  color: "Červené"
  cena: 175,00 Kč
  type: Suché
  classification: Pozdní sběr
  acid: 5,3 g/l
  year: '2009'
  town: Dyje
  region: Znojemská
  sugar: 2,6 g/l
  country: "Česká republika"
- name: Zweigeltrebe, 2009, pozdní sběr, Trpělka & Oulehla, 0,75l
  color: "Červené"
  cena: 186,00 Kč
  type: Suché
  acid: 4,9 g/l
  year: '2009'
  sugar: 3,3 g/l
  country: "Česká republika"
- name: Shiraz, Reserva Barossa, Berton Vineyard, 0,75l
  color: "Červené"
  cena: 411,00 Kč
  type: Suché
  alcohol: 14,5 %
  country: Austrálie
- name: Grand Veneuer Reserve, Côtes du Rhône, Alain Jaume, 0,75l
  color: "Červené"
  cena: 209,00 Kč
  type: Suché
  alcohol: 14,0 %
  region: Côtes du Rhône
  country: Francie
- name: Pinot noir Austerlitz, 2009, výběr z hroznů, Spielberg, 0,75l
  color: "Červené"
  cena: 299,00 Kč
  type: Suché
  classification: Výběr z hroznů
  year: '2009'
  town: Archlebov
  region: Slovácká
  country: "Česká republika"
- name: Paul Buisse Chinon, 0,75l
  color: "Červené"
  cena: 649,00 Kč
  alcohol: 13,0 %
  country: Francie
- name: Tarapacá, Cabernet sauvignon, 2011, Gran Reserva, 0,75l
  color: "Červené"
  cena: 299,00 Kč
  type: Suché
  alcohol: 14,5 %
  country: Chile
- name: Cuvée červené Magnum, 2005, Flower Line, suché, Mikrosvín, 1,5l
  color: "Červené"
  cena: 249,00 Kč
  type: Suché
  classification: Jakostní víno
  alcohol: 12,0 %
  acid: 5,1 g/l
  year: '2005'
  region: Morava
  country: "Česká republika"
- name: Merlot - Frankovka, výběr z hroznů, suché, Gala, 0,75l
  color: "Červené"
  cena: 420,00 Kč
  type: Suché
  classification: Výběr z hroznů
  alcohol: 14,0 %
  year: '2012'
  town: Bavory
  region: Morava
  country: "Česká republika"
- name: Famiglia Bianchi, Malbec, Valentin Bianchi, 0,75l
  color: "Červené"
  cena: 298,00 Kč
  type: Suché
  alcohol: 14,5 %
  country: Argentina
- name: Premium HF 2011, suché, Hort, 0,75l
  color: "Červené"
  cena: 288,00 Kč
  type: Suché
  alcohol: 14,5 %
  year: '2011'
  sugar: 0,5 g/l
  country: Francie
- name: Modrý portugal, 2011, Classic, jakostní, suché, Rajhradské Klášterní, 0,75l
  color: "Červené"
  cena: 121,00 Kč
  type: Suché
  classification: Jakostní víno
  alcohol: 12,0 %
  acid: 4,7 g/l
  year: '2011'
  town: Blučina
  region: Morava
  sugar: 0,1 g/l
  country: "Česká republika"
- name: Luis Felipe Edwards, Merlot, Pupilla, 0,75l
  color: "Červené"
  cena: 97,00 Kč
  alcohol: 13,0 %
  country: Chile
- name: Alibernet, 2011, pozdní sběr, suché, Žůrek, 0,75l
  color: "Červené"
  cena: 159,00 Kč
  type: Suché
  classification: Pozdní sběr
  alcohol: 13,0 %
  year: '2011'
  town: Svatobořice-Mistřín
  country: "Česká republika"
- name: Malbec, Coleccion, Michel Torino, 0,75l
  color: "Červené"
  cena: 188,00 Kč
  type: Suché
  alcohol: 13,5 %
  country: Argentina
- name: André, 2012, Žůrek, 0,75l
  color: "Červené"
  cena: 99,00 Kč
  type: Suché
  classification: Jakostní víno
  alcohol: 11,0 %
  acid: 6,7 g/l
  year: '2012'
  town: Kyjov
  region: Morava
  sugar: 1,5 g/l
  country: "Česká republika"
- name: Rulandské modré klaret, 2012, výběr z hroznů, Maňák, 0,75l
  color: "Červené"
  cena: 169,00 Kč
  type: Polosladké
  classification: Jakostní víno
  alcohol: 12,5 %
  acid: 6,9 g/l
  year: '2012'
  town: Novosedly
  region: Morava
  sugar: 16,7 g/l
  country: "Česká republika"
- name: André, 2009, pozdní sběr, Syfany, 0,75l
  color: "Červené"
  cena: 199,00 Kč
  type: Suché
  classification: Pozdní sběr
  alcohol: 13,0 %
  acid: 6,7 g/l
  year: '2012'
  town: Vrbice
  region: Morava
  country: "Česká republika"
- name: Neronet, 2013, Extra Range, pozdní sběr, suché, Žůrek, 0,75l
  color: "Červené"
  cena: 269,00 Kč
  type: Suché
  classification: Pozdní sběr
  alcohol: 11,0 %
  acid: 5,5 g/l
  year: '2013'
  town: Polešovice
  region: Morava
  sugar: 6,0 g/l
  country: "Česká republika"
- name: Zweigeltrebe, 2011, pozdní sběr, Collection Red, Pod Martinkou, 0,75l
  color: "Červené"
  cena: 145,00 Kč
  type: Suché
  classification: Pozdní sběr
  alcohol: 12,5 %
  year: '2011'
  town: Mikulov
  region: Morava
  country: "Česká republika"
- name: Malbec, Cuma, Michel Torino, 0,75l
  color: "Červené"
  cena: 149,00 Kč
  alcohol: 13,5 %
  country: Argentina
- name: Cabernet sauvignon, 2011, výběr z hroznů, suché, Moravíno, 0,75l
  color: "Červené"
  cena: 173,00 Kč
  type: Suché
  classification: Výběr z hroznů
  alcohol: 13,0 %
  acid: 5,6 g/l
  year: '2011'
  town: Mikulov
  region: Morava
  sugar: 1,9 g/l
  country: "Česká republika"
- name: Luis Felipe Edwards, Malbec, Reserva, 0,75l
  color: "Červené"
  cena: 185,00 Kč
  alcohol: 14,0 %
  country: Chile
- name: Grand cuvée červené, 2011, výběr z hroznů, suché, Moravíno, 0,75l
  color: "Červené"
  cena: 173,00 Kč
  type: Suché
  classification: Výběr z hroznů
  alcohol: 13,5 %
  acid: 5,6 g/l
  year: '2011'
  town: Mikulov
  region: Morava
  sugar: 4,0 g/l
  country: "Česká republika"
